…
    ## [1] "RMSE for model predicting total CPR with only offensive CPR: 6.055"

``` r
sprintf("RMSE for model predicting total CPR with only defensive CPR: %s", round(sqrt(mean(def$residuals ^ 2)), 3))
```

    ## [1] "RMSE for model predicting total CPR with only defensive CPR: 4.717"

``` r
ncaahoopR::ncaa_colors
```

    ## # A tibble: 362 × 11
    ##    ncaa_name      espn_name primary_color secondary_color tertiary_color color_4
    ##    <chr>          <chr>     <chr>         <chr>           <chr>          <chr>  
    ##  1 A&M-Corpus Ch… Texas A&… #0067C5       #007F3E         <NA>           <NA>   
    ##  2 Abilene Chris… Abil Chr… #461D7C       #FFFFFF         <NA>           <NA>   
    ##  3 Air Force      Air Force #003087       #8A8D8F         #B1B3B3        #FFC72C
    ##  4 Akron          Akron     #041E42       #A89968         <NA>           <NA>   
    ##  5 Alabama        Alabama   #9E1B32       #828A8F         #FFFFFF        <NA>   
    ##  6 Alabama A&M    Alabama … #660000       #FFFFFF         <NA>           <NA>   
    ##  7 Alabama St.    Alabama … #C99700       #000000         <NA>           <NA>   
    ##  8 UAlbany        Albany    #461660       #EEB211         <NA>           <NA>   
    ##  9 Alcorn         Alcorn S… #46166A       #E9A713         <NA>           <NA>   
    ## 10 American       American  #C4122E       #005099         <NA>           <NA>   
    ## # ℹ 352 more rows
    ## # ℹ 5 more variables: color_5 <chr>, color_6 <chr>, logo_url <chr>,
    ## #   color_3 <chr>, conference <chr>
…
